Lab_4/Lab_4.sim/sim_1/behav/xsim/dump.vcd
$date
   Thu Mar 27 08:53:37 2025
$end

$version
  2024.2.0
$end

$timescale
  1ps
$end

$scope module tb_controller $end
$var reg 1 ! mem_rd $end
$var reg 1 " load_ir $end
$var reg 1 # halt $end
$var reg 1 $ inc_pc $end
$var reg 1 % load_ac $end
$var reg 1 & load_pc $end
$var reg 1 ' mem_wr $end
$var reg 1 ( clk $end
$var reg 1 ) rst_ $end
$var reg 1 * zero $end
$var reg 3 + opcode $end
$var reg 8 , lstate $end
$var integer 32 - response_num [31:0] $end
$var integer 32 . stimulus_num [31:0] $end
$var reg 4 / stimulus_reg [3:0] $end
$var reg 7 0 response_net [6:0] $end
$scope module dut_controller $end
$var wire 1 1 clk $end
$var wire 1 2 rst_ $end
$var wire 1 3 zero $end
$var wire 3 4 opcode $end
$var reg 1 ! mem_rd $end
$var reg 1 " load_ir $end
$var reg 1 # halt $end
$var reg 1 $ inc_pc $end
$var reg 1 % load_ac $end
$var reg 1 & load_pc $end
$var reg 1 ' mem_wr $end
$var reg 8 5 state $end
$var reg 1 6 aluop $end
$upscope $end
$upscope $end
$enddefinitions $end

#0
$dumpvars
0!
0"
0#
0$
0%
0&
0'
1(
1)
0*
b0 +
bx ,
b0 -
b0 .
b0 /
b0 0
11
12
03
b0 4
bx 5
06
$end

#5000
0(
0)
b0 ,
01
02
b0 5

#10000
1(
11

#15000
0(
1)
01
12

#20000
1!
1(
b1 ,
b1000000 0
11
b1 5

#25000
0(
b1 -
01

#30000
1!
1"
1(
b10 ,
b1100000 0
11
b10 5

#35000
0(
b10 -
01

#40000
1!
1"
1(
b11 ,
11
b11 5

#45000
0(
b11 -
01

#50000
0!
0"
1#
1$
1(
b100 ,
b11000 0
11
b100 5

#55000
0(
b100 -
01

#60000
0#
0$
1(
b101 ,
b0 0
11
b101 5

#65000
0(
b101 -
01

#70000
1(
b110 ,
11
b110 5

#75000
0(
b110 -
01

#80000
1(
b111 ,
11
b111 5

#85000
0(
b111 -
b1 .
01

#90000
1(
b0 ,
11
b0 5

#95000
0(
b1000 -
01

#100000
1!
1(
b1 ,
b1000000 0
11
b1 5

#105000
0(
b1001 -
01

#110000
1!
1"
1(
b10 ,
b1100000 0
11
b10 5

#115000
0(
b1010 -
01

#120000
1!
1"
1(
b11 ,
11
b11 5

#125000
0(
b1011 -
01

#130000
0!
0"
1#
1$
1(
b100 ,
b11000 0
11
b100 5

#135000
0(
b1100 -
01

#140000
0#
0$
1(
b101 ,
b0 0
11
b101 5

#145000
0(
b1101 -
01

#150000
1(
b110 ,
11
b110 5

#155000
0(
b1110 -
01

#160000
1(
b111 ,
11
b111 5

#165000
0(
b1 +
b1111 -
b10 .
b1 /
01
b1 4

#170000
1(
b0 ,
11
b0 5

#175000
0(
b10000 -
01

#180000
1!
1(
b1 ,
b1000000 0
11
b1 5

#185000
0(
b10001 -
01

#190000
1!
1"
1(
b10 ,
b1100000 0
11
b10 5

#195000
0(
b10010 -
01

#200000
1!
1"
1(
b11 ,
11
b11 5

#205000
0(
b10011 -
01

#210000
0!
0"
1$
1(
b100 ,
b1000 0
11
b100 5

#215000
0(
b10100 -
01

#220000
0$
1(
b101 ,
b0 0
11
b101 5

#225000
0(
b10101 -
01

#230000
1(
b110 ,
11
b110 5

#235000
0(
b10110 -
01

#240000
1(
b111 ,
11
b111 5

#245000
1!
1%
0(
b10 +
b10111 -
b11 .
b10 /
b1000100 0
01
b10 4
16

#250000
0!
0%
1(
b0 ,
b0 0
11
b0 5

#255000
0(
b11000 -
01

#260000
1!
1(
b1 ,
b1000000 0
11
b1 5

#265000
0(
b11001 -
01

#270000
1!
1"
1(
b10 ,
b1100000 0
11
b10 5

#275000
0(
b11010 -
01

#280000
1!
1"
1(
b11 ,
11
b11 5

#285000
0(
b11011 -
01

#290000
0!
0"
1$
1(
b100 ,
b1000 0
11
b100 5

#295000
0(
b11100 -
01

#300000
1!
0$
1(
b101 ,
b1000000 0
11
b101 5

#305000
0(
b11101 -
01

#310000
1!
1%
1(
b110 ,
b1000100 0
11
b110 5

#315000
0(
b11110 -
01

#320000
1!
1%
1(
b111 ,
11
b111 5

#325000
1!
1%
0(
b11 +
b11111 -
b100 .
b11 /
01
b11 4

#330000
0!
0%
1(
b0 ,
b0 0
11
b0 5

#335000
0(
b100000 -
01

#340000
1!
1(
b1 ,
b1000000 0
11
b1 5

#345000
0(
b100001 -
01

#350000
1!
1"
1(
b10 ,
b1100000 0
11
b10 5

#355000
0(
b100010 -
01

#360000
1!
1"
1(
b11 ,
11
b11 5

#365000
0(
b100011 -
01

#370000
0!
0"
1$
1(
b100 ,
b1000 0
11
b100 5

#375000
0(
b100100 -
01

#380000
1!
0$
1(
b101 ,
b1000000 0
11
b101 5

#385000
0(
b100101 -
01

#390000
1!
1%
1(
b110 ,
b1000100 0
11
b110 5

#395000
0(
b100110 -
01

#400000
1!
1%
1(
b111 ,
11
b111 5

#405000
1!
1%
0(
b100 +
b100111 -
b101 .
b100 /
01
b100 4

#410000
0!
0%
1(
b0 ,
b0 0
11
b0 5

#415000
0(
b101000 -
01

#420000
1!
1(
b1 ,
b1000000 0
11
b1 5

#425000
0(
b101001 -
01

#430000
1!
1"
1(
b10 ,
b1100000 0
11
b10 5

#435000
0(
b101010 -
01

#440000
1!
1"
1(
b11 ,
11
b11 5

#445000
0(
b101011 -
01

#450000
0!
0"
1$
1(
b100 ,
b1000 0
11
b100 5

#455000
0(
b101100 -
01

#460000
1!
0$
1(
b101 ,
b1000000 0
11
b101 5

#465000
0(
b101101 -
01

#470000
1!
1%
1(
b110 ,
b1000100 0
11
b110 5

#475000
0(
b101110 -
01

#480000
1!
1%
1(
b111 ,
11
b111 5

#485000
1!
1%
0(
b101 +
b101111 -
b110 .
b101 /
01
b101 4

#490000
0!
0%
1(
b0 ,
b0 0
11
b0 5

#495000
0(
b110000 -
01

#500000
1!
1(
b1 ,
b1000000 0
11
b1 5

#505000
0(
b110001 -
01

#510000
1!
1"
1(
b10 ,
b1100000 0
11
b10 5

#515000
0(
b110010 -
01

#520000
1!
1"
1(
b11 ,
11
b11 5

#525000
0(
b110011 -
01

#530000
0!
0"
1$
1(
b100 ,
b1000 0
11
b100 5

#535000
0(
b110100 -
01

#540000
1!
0$
1(
b101 ,
b1000000 0
11
b101 5

#545000
0(
b110101 -
01

#550000
1!
1%
1(
b110 ,
b1000100 0
11
b110 5

#555000
0(
b110110 -
01

#560000
1!
1%
1(
b111 ,
11
b111 5

#565000
0!
0%
1'
0(
b110 +
b110111 -
b111 .
b110 /
b1 0
01
b110 4
06

#570000
0'
1(
b0 ,
b0 0
11
b0 5

#575000
0(
b111000 -
01

#580000
1!
1(
b1 ,
b1000000 0
11
b1 5

#585000
0(
b111001 -
01

#590000
1!
1"
1(
b10 ,
b1100000 0
11
b10 5

#595000
0(
b111010 -
01

#600000
1!
1"
1(
b11 ,
11
b11 5

#605000
0(
b111011 -
01

#610000
0!
0"
1$
1(
b100 ,
b1000 0
11
b100 5

#615000
0(
b111100 -
01

#620000
0$
1(
b101 ,
b0 0
11
b101 5

#625000
0(
b111101 -
01

#630000
1(
b110 ,
11
b110 5

#635000
0(
b111110 -
01

#640000
1'
1(
b111 ,
b1 0
11
b111 5

#645000
1$
1&
0'
0(
b111 +
b111111 -
b1000 .
b111 /
b1010 0
01
b111 4

#650000
0$
0&
1(
b0 ,
b0 0
11
b0 5

#655000
0(
b1000000 -
01

#660000
1!
1(
b1 ,
b1000000 0
11
b1 5

#665000
0(
b1000001 -
01

#670000
1!
1"
1(
b10 ,
b1100000 0
11
b10 5

#675000
0(
b1000010 -
01

#680000
1!
1"
1(
b11 ,
11
b11 5

#685000
0(
b1000011 -
01

#690000
0!
0"
1$
1(
b100 ,
b1000 0
11
b100 5

#695000
0(
b1000100 -
01

#700000
0$
1(
b101 ,
b0 0
11
b101 5

#705000
0(
b1000101 -
01

#710000
1&
1(
b110 ,
b10 0
11
b110 5

#715000
0(
b1000110 -
01

#720000
1$
1&
1(
b111 ,
b1010 0
11
b111 5

#725000
0$
0&
0(
1*
b0 +
b1000111 -
b1001 .
b1000 /
b0 0
01
13
b0 4

#730000
1(
b0 ,
11
b0 5

#735000
0(
b1001000 -
01

#740000
1!
1(
b1 ,
b1000000 0
11
b1 5

#745000
0(
b1001001 -
01

#750000
1!
1"
1(
b10 ,
b1100000 0
11
b10 5

#755000
0(
b1001010 -
01

#760000
1!
1"
1(
b11 ,
11
b11 5

#765000
0(
b1001011 -
01

#770000
0!
0"
1#
1$
1(
b100 ,
b11000 0
11
b100 5

#775000
0(
b1001100 -
01

#780000
0#
0$
1(
b101 ,
b0 0
11
b101 5

#785000
0(
b1001101 -
01

#790000
1(
b110 ,
11
b110 5

#795000
0(
b1001110 -
01

#800000
1(
b111 ,
11
b111 5

#805000
0(
b1 +
b1001111 -
b1010 .
b1001 /
01
b1 4

#810000
1(
b0 ,
11
b0 5

#815000
0(
b1010000 -
01

#820000
1!
1(
b1 ,
b1000000 0
11
b1 5

#825000
0(
b1010001 -
01

#830000
1!
1"
1(
b10 ,
b1100000 0
11
b10 5

#835000
0(
b1010010 -
01

#840000
1!
1"
1(
b11 ,
11
b11 5

#845000
0(
b1010011 -
01

#850000
0!
0"
1$
1(
b100 ,
b1000 0
11
b100 5

#855000
0(
b1010100 -
01

#860000
0$
1(
b101 ,
b0 0
11
b101 5

#865000
0(
b1010101 -
01

#870000
1$
1(
b110 ,
b1000 0
11
b110 5

#875000
0(
b1010110 -
01

#880000
0$
1(
b111 ,
b0 0
11
b111 5

#885000
1!
1%
0(
b10 +
b1010111 -
b1011 .
b1010 /
b1000100 0
01
b10 4
16

#890000
0!
0%
1(
b0 ,
b0 0
11
b0 5

#895000
0(
b1011000 -
01

#900000
1!
1(
b1 ,
b1000000 0
11
b1 5

#905000
0(
b1011001 -
01

#910000
1!
1"
1(
b10 ,
b1100000 0
11
b10 5

#915000
0(
b1011010 -
01

#920000
1!
1"
1(
b11 ,
11
b11 5

#925000
0(
b1011011 -
01

#930000
0!
0"
1$
1(
b100 ,
b1000 0
11
b100 5

#935000
0(
b1011100 -
01

#940000
1!
0$
1(
b101 ,
b1000000 0
11
b101 5

#945000
0(
b1011101 -
01

#950000
1!
1%
1(
b110 ,
b1000100 0
11
b110 5

#955000
0(
b1011110 -
01

#960000
1!
1%
1(
b111 ,
11
b111 5

#965000
1!
1%
0(
b11 +
b1011111 -
b1100 .
b1011 /
01
b11 4

#970000
0!
0%
1(
b0 ,
b0 0
11
b0 5

#975000
0(
b1100000 -
01

#980000
1!
1(
b1 ,
b1000000 0
11
b1 5

#985000
0(
b1100001 -
01

#990000
1!
1"
1(
b10 ,
b1100000 0
11
b10 5

#995000
0(
b1100010 -
01

#1000000
1!
1"
1(
b11 ,
11
b11 5
