Lab_4/Lab_4.sim/sim_1/behav/xsim/simulate.log
Time resolution is 1 ps
ERROR: Could not open VCD file lab_04/lab_04.vcd for writing.
WARNING: 0ns : none of the conditions were true for unique case from File:/home/leonardo/PROJETO CV-QKD/04 - CURSOS/02 - LISTA DE EXERCICIOS/Lab_4/Lab_4.srcs/sources_1/new/control.sv:34
WARNING: 0ns : none of the conditions were true for unique case from File:/home/leonardo/PROJETO CV-QKD/04 - CURSOS/02 - LISTA DE EXERCICIOS/Lab_4/Lab_4.srcs/sources_1/new/control.sv:34
    0.0ns rst_=1 ph= 	 zer=0 op=_HLT rd=0 l_ir=0 hlt=0 inc=0 l_ac=0 l_pc=0 wr=0
    5.0ns rst_=0 ph=_INST_ADDR 	 zer=0 op=_HLT rd=0 l_ir=0 hlt=0 inc=0 l_ac=0 l_pc=0 wr=0
   15.0ns rst_=1 ph=_INST_ADDR 	 zer=0 op=_HLT rd=0 l_ir=0 hlt=0 inc=0 l_ac=0 l_pc=0 wr=0
   20.0ns rst_=1 ph=_INST_FETCH 	 zer=0 op=_HLT rd=1 l_ir=0 hlt=0 inc=0 l_ac=0 l_pc=0 wr=0
   30.0ns rst_=1 ph=_INST_LOAD 	 zer=0 op=_HLT rd=1 l_ir=1 hlt=0 inc=0 l_ac=0 l_pc=0 wr=0
   50.0ns rst_=1 ph=_OP_ADDR 	 zer=0 op=_HLT rd=0 l_ir=0 hlt=1 inc=1 l_ac=0 l_pc=0 wr=0
   60.0ns rst_=1 ph=_OP_FETCH 	 zer=0 op=_HLT rd=0 l_ir=0 hlt=0 inc=0 l_ac=0 l_pc=0 wr=0
  100.0ns rst_=1 ph=_INST_FETCH 	 zer=0 op=_HLT rd=1 l_ir=0 hlt=0 inc=0 l_ac=0 l_pc=0 wr=0
  110.0ns rst_=1 ph=_INST_LOAD 	 zer=0 op=_HLT rd=1 l_ir=1 hlt=0 inc=0 l_ac=0 l_pc=0 wr=0
  130.0ns rst_=1 ph=_OP_ADDR 	 zer=0 op=_HLT rd=0 l_ir=0 hlt=1 inc=1 l_ac=0 l_pc=0 wr=0
  140.0ns rst_=1 ph=_OP_FETCH 	 zer=0 op=_HLT rd=0 l_ir=0 hlt=0 inc=0 l_ac=0 l_pc=0 wr=0
  180.0ns rst_=1 ph=_INST_FETCH 	 zer=0 op=_SKZ rd=1 l_ir=0 hlt=0 inc=0 l_ac=0 l_pc=0 wr=0
  190.0ns rst_=1 ph=_INST_LOAD 	 zer=0 op=_SKZ rd=1 l_ir=1 hlt=0 inc=0 l_ac=0 l_pc=0 wr=0
  210.0ns rst_=1 ph=_OP_ADDR 	 zer=0 op=_SKZ rd=0 l_ir=0 hlt=0 inc=1 l_ac=0 l_pc=0 wr=0
  220.0ns rst_=1 ph=_OP_FETCH 	 zer=0 op=_SKZ rd=0 l_ir=0 hlt=0 inc=0 l_ac=0 l_pc=0 wr=0
  245.0ns rst_=1 ph=_STORE 	 zer=0 op=_ADD rd=1 l_ir=0 hlt=0 inc=0 l_ac=1 l_pc=0 wr=0
  250.0ns rst_=1 ph=_INST_ADDR 	 zer=0 op=_ADD rd=0 l_ir=0 hlt=0 inc=0 l_ac=0 l_pc=0 wr=0
  260.0ns rst_=1 ph=_INST_FETCH 	 zer=0 op=_ADD rd=1 l_ir=0 hlt=0 inc=0 l_ac=0 l_pc=0 wr=0
  270.0ns rst_=1 ph=_INST_LOAD 	 zer=0 op=_ADD rd=1 l_ir=1 hlt=0 inc=0 l_ac=0 l_pc=0 wr=0
  290.0ns rst_=1 ph=_OP_ADDR 	 zer=0 op=_ADD rd=0 l_ir=0 hlt=0 inc=1 l_ac=0 l_pc=0 wr=0
  300.0ns rst_=1 ph=_OP_FETCH 	 zer=0 op=_ADD rd=1 l_ir=0 hlt=0 inc=0 l_ac=0 l_pc=0 wr=0
  310.0ns rst_=1 ph=_ALU_OP 	 zer=0 op=_ADD rd=1 l_ir=0 hlt=0 inc=0 l_ac=1 l_pc=0 wr=0
  330.0ns rst_=1 ph=_INST_ADDR 	 zer=0 op=_AND rd=0 l_ir=0 hlt=0 inc=0 l_ac=0 l_pc=0 wr=0
  340.0ns rst_=1 ph=_INST_FETCH 	 zer=0 op=_AND rd=1 l_ir=0 hlt=0 inc=0 l_ac=0 l_pc=0 wr=0
  350.0ns rst_=1 ph=_INST_LOAD 	 zer=0 op=_AND rd=1 l_ir=1 hlt=0 inc=0 l_ac=0 l_pc=0 wr=0
  370.0ns rst_=1 ph=_OP_ADDR 	 zer=0 op=_AND rd=0 l_ir=0 hlt=0 inc=1 l_ac=0 l_pc=0 wr=0
  380.0ns rst_=1 ph=_OP_FETCH 	 zer=0 op=_AND rd=1 l_ir=0 hlt=0 inc=0 l_ac=0 l_pc=0 wr=0
  390.0ns rst_=1 ph=_ALU_OP 	 zer=0 op=_AND rd=1 l_ir=0 hlt=0 inc=0 l_ac=1 l_pc=0 wr=0
  410.0ns rst_=1 ph=_INST_ADDR 	 zer=0 op=_XOR rd=0 l_ir=0 hlt=0 inc=0 l_ac=0 l_pc=0 wr=0
  420.0ns rst_=1 ph=_INST_FETCH 	 zer=0 op=_XOR rd=1 l_ir=0 hlt=0 inc=0 l_ac=0 l_pc=0 wr=0
  430.0ns rst_=1 ph=_INST_LOAD 	 zer=0 op=_XOR rd=1 l_ir=1 hlt=0 inc=0 l_ac=0 l_pc=0 wr=0
  450.0ns rst_=1 ph=_OP_ADDR 	 zer=0 op=_XOR rd=0 l_ir=0 hlt=0 inc=1 l_ac=0 l_pc=0 wr=0
  460.0ns rst_=1 ph=_OP_FETCH 	 zer=0 op=_XOR rd=1 l_ir=0 hlt=0 inc=0 l_ac=0 l_pc=0 wr=0
  470.0ns rst_=1 ph=_ALU_OP 	 zer=0 op=_XOR rd=1 l_ir=0 hlt=0 inc=0 l_ac=1 l_pc=0 wr=0
  490.0ns rst_=1 ph=_INST_ADDR 	 zer=0 op=_LDA rd=0 l_ir=0 hlt=0 inc=0 l_ac=0 l_pc=0 wr=0
  500.0ns rst_=1 ph=_INST_FETCH 	 zer=0 op=_LDA rd=1 l_ir=0 hlt=0 inc=0 l_ac=0 l_pc=0 wr=0
  510.0ns rst_=1 ph=_INST_LOAD 	 zer=0 op=_LDA rd=1 l_ir=1 hlt=0 inc=0 l_ac=0 l_pc=0 wr=0
  530.0ns rst_=1 ph=_OP_ADDR 	 zer=0 op=_LDA rd=0 l_ir=0 hlt=0 inc=1 l_ac=0 l_pc=0 wr=0
  540.0ns rst_=1 ph=_OP_FETCH 	 zer=0 op=_LDA rd=1 l_ir=0 hlt=0 inc=0 l_ac=0 l_pc=0 wr=0
  550.0ns rst_=1 ph=_ALU_OP 	 zer=0 op=_LDA rd=1 l_ir=0 hlt=0 inc=0 l_ac=1 l_pc=0 wr=0
  565.0ns rst_=1 ph=_STORE 	 zer=0 op=_STO rd=0 l_ir=0 hlt=0 inc=0 l_ac=0 l_pc=0 wr=1
  570.0ns rst_=1 ph=_INST_ADDR 	 zer=0 op=_STO rd=0 l_ir=0 hlt=0 inc=0 l_ac=0 l_pc=0 wr=0
  580.0ns rst_=1 ph=_INST_FETCH 	 zer=0 op=_STO rd=1 l_ir=0 hlt=0 inc=0 l_ac=0 l_pc=0 wr=0
  590.0ns rst_=1 ph=_INST_LOAD 	 zer=0 op=_STO rd=1 l_ir=1 hlt=0 inc=0 l_ac=0 l_pc=0 wr=0
  610.0ns rst_=1 ph=_OP_ADDR 	 zer=0 op=_STO rd=0 l_ir=0 hlt=0 inc=1 l_ac=0 l_pc=0 wr=0
  620.0ns rst_=1 ph=_OP_FETCH 	 zer=0 op=_STO rd=0 l_ir=0 hlt=0 inc=0 l_ac=0 l_pc=0 wr=0
  640.0ns rst_=1 ph=_STORE 	 zer=0 op=_STO rd=0 l_ir=0 hlt=0 inc=0 l_ac=0 l_pc=0 wr=1
  645.0ns rst_=1 ph=_STORE 	 zer=0 op=_JMP rd=0 l_ir=0 hlt=0 inc=1 l_ac=0 l_pc=1 wr=0
  650.0ns rst_=1 ph=_INST_ADDR 	 zer=0 op=_JMP rd=0 l_ir=0 hlt=0 inc=0 l_ac=0 l_pc=0 wr=0
  660.0ns rst_=1 ph=_INST_FETCH 	 zer=0 op=_JMP rd=1 l_ir=0 hlt=0 inc=0 l_ac=0 l_pc=0 wr=0
  670.0ns rst_=1 ph=_INST_LOAD 	 zer=0 op=_JMP rd=1 l_ir=1 hlt=0 inc=0 l_ac=0 l_pc=0 wr=0
  690.0ns rst_=1 ph=_OP_ADDR 	 zer=0 op=_JMP rd=0 l_ir=0 hlt=0 inc=1 l_ac=0 l_pc=0 wr=0
  700.0ns rst_=1 ph=_OP_FETCH 	 zer=0 op=_JMP rd=0 l_ir=0 hlt=0 inc=0 l_ac=0 l_pc=0 wr=0
  710.0ns rst_=1 ph=_ALU_OP 	 zer=0 op=_JMP rd=0 l_ir=0 hlt=0 inc=0 l_ac=0 l_pc=1 wr=0
  720.0ns rst_=1 ph=_STORE 	 zer=0 op=_JMP rd=0 l_ir=0 hlt=0 inc=1 l_ac=0 l_pc=1 wr=0
  725.0ns rst_=1 ph=_STORE 	 zer=1 op=_HLT rd=0 l_ir=0 hlt=0 inc=0 l_ac=0 l_pc=0 wr=0
  740.0ns rst_=1 ph=_INST_FETCH 	 zer=1 op=_HLT rd=1 l_ir=0 hlt=0 inc=0 l_ac=0 l_pc=0 wr=0
  750.0ns rst_=1 ph=_INST_LOAD 	 zer=1 op=_HLT rd=1 l_ir=1 hlt=0 inc=0 l_ac=0 l_pc=0 wr=0
  770.0ns rst_=1 ph=_OP_ADDR 	 zer=1 op=_HLT rd=0 l_ir=0 hlt=1 inc=1 l_ac=0 l_pc=0 wr=0
  780.0ns rst_=1 ph=_OP_FETCH 	 zer=1 op=_HLT rd=0 l_ir=0 hlt=0 inc=0 l_ac=0 l_pc=0 wr=0
  820.0ns rst_=1 ph=_INST_FETCH 	 zer=1 op=_SKZ rd=1 l_ir=0 hlt=0 inc=0 l_ac=0 l_pc=0 wr=0
  830.0ns rst_=1 ph=_INST_LOAD 	 zer=1 op=_SKZ rd=1 l_ir=1 hlt=0 inc=0 l_ac=0 l_pc=0 wr=0
  850.0ns rst_=1 ph=_OP_ADDR 	 zer=1 op=_SKZ rd=0 l_ir=0 hlt=0 inc=1 l_ac=0 l_pc=0 wr=0
  860.0ns rst_=1 ph=_OP_FETCH 	 zer=1 op=_SKZ rd=0 l_ir=0 hlt=0 inc=0 l_ac=0 l_pc=0 wr=0
  870.0ns rst_=1 ph=_ALU_OP 	 zer=1 op=_SKZ rd=0 l_ir=0 hlt=0 inc=1 l_ac=0 l_pc=0 wr=0
  880.0ns rst_=1 ph=_STORE 	 zer=1 op=_SKZ rd=0 l_ir=0 hlt=0 inc=0 l_ac=0 l_pc=0 wr=0
  885.0ns rst_=1 ph=_STORE 	 zer=1 op=_ADD rd=1 l_ir=0 hlt=0 inc=0 l_ac=1 l_pc=0 wr=0
  890.0ns rst_=1 ph=_INST_ADDR 	 zer=1 op=_ADD rd=0 l_ir=0 hlt=0 inc=0 l_ac=0 l_pc=0 wr=0
  900.0ns rst_=1 ph=_INST_FETCH 	 zer=1 op=_ADD rd=1 l_ir=0 hlt=0 inc=0 l_ac=0 l_pc=0 wr=0
  910.0ns rst_=1 ph=_INST_LOAD 	 zer=1 op=_ADD rd=1 l_ir=1 hlt=0 inc=0 l_ac=0 l_pc=0 wr=0
  930.0ns rst_=1 ph=_OP_ADDR 	 zer=1 op=_ADD rd=0 l_ir=0 hlt=0 inc=1 l_ac=0 l_pc=0 wr=0
  940.0ns rst_=1 ph=_OP_FETCH 	 zer=1 op=_ADD rd=1 l_ir=0 hlt=0 inc=0 l_ac=0 l_pc=0 wr=0
  950.0ns rst_=1 ph=_ALU_OP 	 zer=1 op=_ADD rd=1 l_ir=0 hlt=0 inc=0 l_ac=1 l_pc=0 wr=0
  970.0ns rst_=1 ph=_INST_ADDR 	 zer=1 op=_AND rd=0 l_ir=0 hlt=0 inc=0 l_ac=0 l_pc=0 wr=0
  980.0ns rst_=1 ph=_INST_FETCH 	 zer=1 op=_AND rd=1 l_ir=0 hlt=0 inc=0 l_ac=0 l_pc=0 wr=0
  990.0ns rst_=1 ph=_INST_LOAD 	 zer=1 op=_AND rd=1 l_ir=1 hlt=0 inc=0 l_ac=0 l_pc=0 wr=0
